[
 {
  "pk": 1, 
  "model": "ishtar_base.organizationtype", 
  "fields": {
   "comment": "", 
   "available": true, 
   "txt_idx": "sra", 
   "label": "Service R\u00e9gional d'Arch\u00e9ologie"
  }
 }, 
 {
  "pk": 2, 
  "model": "ishtar_base.organizationtype", 
  "fields": {
   "comment": "D\u00e9cret 2004\r\n\r\n\"Op\u00e9rateurs\" les personnes qui r\u00e9alisent les op\u00e9rations arch\u00e9ologiques.", 
   "available": true, 
   "txt_idx": "operator", 
   "label": "Op\u00e9rateur d'arch\u00e9ologie pr\u00e9ventive"
  }
 }, 
 {
  "pk": 4, 
  "model": "ishtar_base.organizationtype", 
  "fields": {
   "comment": "Laboratoire ayant sous sa responsabilit\u00e9 du mobilier arch\u00e9ologique de mani\u00e8re temporaire. C'est un type de d\u00e9p\u00f4t. C'est un lieu de traitement.", 
   "available": true, 
   "txt_idx": "restoration_laboratory", 
   "label": "Laboratoire de restauration"
  }
 }, 
 {
  "pk": 5, 
  "model": "ishtar_base.organizationtype", 
  "fields": {
   "comment": "Pour des entreprises, collectivit\u00e9s territoriales ou autres organisations", 
   "available": true, 
   "txt_idx": "general_contractor", 
   "label": "Am\u00e9nageur"
  }
 }, 
 {
  "pk": 7, 
  "model": "ishtar_base.organizationtype", 
  "fields": {
   "comment": "Cette organisation et ses membres travaillent b\u00e9n\u00e9volement", 
   "available": true, 
   "txt_idx": "volunteer", 
   "label": "B\u00e9n\u00e9vole"
  }
 }, 
 {
  "pk": 8, 
  "model": "ishtar_base.organizationtype", 
  "fields": {
   "comment": "les services qui d\u00e9livrent les autorisations requises pour les diff\u00e9rents projets (DDE, services\r\nurbanisme des collectivit\u00e9s, pr\u00e9fectures, Drire, etc.)", 
   "available": true, 
   "txt_idx": "planning_service", 
   "label": "Service instructeur"
  }
 }, 
 {
  "pk": 9, 
  "model": "ishtar_base.organizationtype", 
  "fields": {
   "comment": "", 
   "available": true, 
   "txt_idx": "museum", 
   "label": "Mus\u00e9e"
  }
 }, 
 {
  "pk": 6, 
  "model": "ishtar_base.organizationtype", 
  "fields": {
   "comment": "Laboratoire de recherche du CNRS. Peut-\u00eatre une UMR et donc int\u00e9gr\u00e9 des chercheurs de l'universit\u00e9. n'inclus pas les \"laboratoires\" priv\u00e9s", 
   "available": true, 
   "txt_idx": "research_laboratory", 
   "label": "Laboratoire de recherche"
  }
 }, 
 {
  "pk": 10, 
  "model": "ishtar_base.organizationtype", 
  "fields": {
   "comment": "Propri\u00e9taire d'au moins une parcelle", 
   "available": true, 
   "txt_idx": "land_owner", 
   "label": "Propri\u00e9taire foncier"
  }
 }, 
 {
  "pk": 11, 
  "model": "ishtar_base.organizationtype", 
  "fields": {
   "comment": "Propri\u00e9taire de mobilier arch\u00e9ologique", 
   "available": true, 
   "txt_idx": "find_owner", 
   "label": "Propri\u00e9taire de mobilier"
  }
 }, 
 {
  "pk": 1, 
  "model": "ishtar_base.persontype", 
  "fields": {
   "comment": "", 
   "available": true, 
   "txt_idx": "administrator", 
   "label": "Administrateur"
  }
 }, 
 {
  "pk": 2, 
  "model": "ishtar_base.persontype", 
  "fields": {
   "comment": "Article 13 D\u00e9cret 2004\r\n\r\nLe pr\u00e9fet de r\u00e9gion \u00e9dicte les prescriptions arch\u00e9ologiques, d\u00e9livre l'autorisation de fouille et d\u00e9signe le responsable scientifique de toute op\u00e9ration d'arch\u00e9ologie pr\u00e9ventive.\r\n\r\nLe responsable scientifique est l'interlocuteur du pr\u00e9fet de r\u00e9gion et le garant de la qualit\u00e9 scientifique de l'op\u00e9ration arch\u00e9ologique. A ce titre, il prend, dans le cadre de la mise en oeuvre du projet d'intervention de l'op\u00e9rateur, les d\u00e9cisions relatives \u00e0 la conduite scientifique de l'op\u00e9ration et \u00e0 l'\u00e9laboration du rapport dont il dirige la r\u00e9daction. Il peut \u00eatre diff\u00e9rent pour la r\u00e9alisation du diagnostic et pour la r\u00e9alisation de la fouille.", 
   "available": true, 
   "txt_idx": "head_scientist", 
   "label": "Responsable scientifique"
  }
 }, 
 {
  "pk": 3, 
  "model": "ishtar_base.persontype", 
  "fields": {
   "comment": "Responsables de dossiers d'arch\u00e9ologie", 
   "available": true, 
   "txt_idx": "sra_agent", 
   "label": "Agent scientifique SRA"
  }
 }, 
 {
  "pk": 4, 
  "model": "ishtar_base.persontype", 
  "fields": {
   "comment": "Acc\u00e8s pour les secr\u00e9taires d'un SRA", 
   "available": true, 
   "txt_idx": "secretarial_dept", 
   "label": "Secr\u00e9tariat SRA"
  }
 }, 
 {
  "pk": 5, 
  "model": "ishtar_base.persontype", 
  "fields": {
   "comment": "Cette personne peut g\u00e9rer du mobilier qu'il n'a pas cr\u00e9\u00e9\r\n\r\n", 
   "available": true, 
   "txt_idx": "warehouse_manager", 
   "label": "Gestionnaire de d\u00e9p\u00f4t"
  }
 }, 
 {
  "pk": 6, 
  "model": "ishtar_base.persontype", 
  "fields": {
   "comment": "Responsable de l'am\u00e9nagement", 
   "available": true, 
   "txt_idx": "general_contractor", 
   "label": "Am\u00e9nageur"
  }
 }, 
 {
  "pk": 7, 
  "model": "ishtar_base.persontype", 
  "fields": {
   "comment": "Un acc\u00e8s limit\u00e9 \u00e0 la base, uniquement en lecture. Apr\u00e8s enregistrement.", 
   "available": true, 
   "txt_idx": "public_access", 
   "label": "Acc\u00e8s public"
  }
 }, 
 {
  "pk": 8, 
  "model": "ishtar_base.persontype", 
  "fields": {
   "comment": "Propri\u00e9taire d'une ou plusieurs parcelles", 
   "available": true, 
   "txt_idx": "land_owner", 
   "label": "Propri\u00e9taire foncier"
  }
 }, 
 {
  "pk": 9, 
  "model": "ishtar_base.persontype", 
  "fields": {
   "comment": "Propri\u00e9taire de mobilier arch\u00e9ologique", 
   "available": true, 
   "txt_idx": "find_owner", 
   "label": "Propri\u00e9taire de mobilier"
  }
 }, 
 {
  "pk": 2, 
  "model": "ishtar_base.authortype", 
  "fields": {
   "comment": "Il y a plusieurs \u00e0 une m\u00eame source. Au m\u00eame niveau de responsabilit\u00e9.", 
   "available": true, 
   "txt_idx": "co_author", 
   "label": "Co-auteur "
  }
 }, 
 {
  "pk": 3, 
  "model": "ishtar_base.authortype", 
  "fields": {
   "comment": "Cette personne est l'auteur principal de la source. Les autres auteurs sont des collaborateurs.", 
   "available": true, 
   "txt_idx": "main_author", 
   "label": "Auteur principal"
  }
 }, 
 {
  "pk": 4, 
  "model": "ishtar_base.authortype", 
  "fields": {
   "comment": "Cet auteur n'est pas l'auteur principal de la source mais un collaborateur. Il n'est pas auteur au m\u00eame niveau que l'auteur principal.", 
   "available": true, 
   "txt_idx": "associate_author", 
   "label": "Collaborateur"
  }
 }, 
 {
  "pk": 1, 
  "model": "ishtar_base.sourcetype", 
  "fields": {
   "comment": "Photographie argentique sous une forme imprim\u00e9e", 
   "available": true, 
   "txt_idx": "photo_print", 
   "label": "Epreuve de photographie argentique"
  }
 }, 
 {
  "pk": 2, 
  "model": "ishtar_base.sourcetype", 
  "fields": {
   "comment": "Rapport de fouille arch\u00e9ologique", 
   "available": true, 
   "txt_idx": "final_archaeological_report", 
   "label": "Rapport final d'op\u00e9ration (fouille)"
  }
 }, 
 {
  "pk": 3, 
  "model": "ishtar_base.sourcetype", 
  "fields": {
   "comment": "Rapport li\u00e9 \u00e0 une autorisation de sondage.", 
   "available": true, 
   "txt_idx": "survey_report", 
   "label": "Rapport de sondage"
  }
 }, 
 {
  "pk": 4, 
  "model": "ishtar_base.sourcetype", 
  "fields": {
   "comment": "Rapport li\u00e9 \u00e0 un arr\u00eat\u00e9 de prescription de diagnostic arch\u00e9ologique.", 
   "available": true, 
   "txt_idx": "diagnostic_report", 
   "label": "Rapport de diagnostic"
  }
 }, 
 {
  "pk": 5, 
  "model": "ishtar_base.sourcetype", 
  "fields": {
   "comment": "Source photographique num\u00e9rique", 
   "available": true, 
   "txt_idx": "digital_photo", 
   "label": "Photographie num\u00e9rique"
  }
 }, 
 {
  "pk": 6, 
  "model": "ishtar_base.sourcetype", 
  "fields": {
   "comment": "Rapport de laboratoire d'analyse", 
   "available": true, 
   "txt_idx": "lab_report", 
   "label": "Rapport d'analyse"
  }
 }, 
 {
  "pk": 7, 
  "model": "ishtar_base.sourcetype", 
  "fields": {
   "comment": "Rapport li\u00e9 \u00e0 la restauration ou la stabilisation d'un lot de mobilier ou d'un objet isol\u00e9", 
   "available": true, 
   "txt_idx": "restoration_report", 
   "label": "Rapport de restauration"
  }
 }, 
 {
  "pk": 8, 
  "model": "ishtar_base.sourcetype", 
  "fields": {
   "comment": "Rapport li\u00e9 \u00e0 une autorisation de prospection inventaire", 
   "available": true, 
   "txt_idx": "general_survey_report", 
   "label": "Rapport de prospection inventaire"
  }
 }, 
 {
  "pk": 9, 
  "model": "ishtar_base.sourcetype", 
  "fields": {
   "comment": "Rapport li\u00e9 \u00e0 une autorisation de prospection th\u00e9matique. Ce type de rapport passe d'ordinaire en CIRA.", 
   "available": true, 
   "txt_idx": "thematic_survey_report", 
   "label": "Rapport de prospection th\u00e9matique"
  }
 }, 
 {
  "pk": 1, 
  "model": "ishtar_base.filetype", 
  "fields": {
   "comment": "", 
   "available": true, 
   "txt_idx": "preventive", 
   "label": "Arch\u00e9ologie pr\u00e9ventive"
  }
 }, 
 {
  "pk": 2, 
  "model": "ishtar_base.filetype", 
  "fields": {
   "comment": "", 
   "available": true, 
   "txt_idx": "prog", 
   "label": "Arch\u00e9ologie programm\u00e9e"
  }
 }, 
 {
  "pk": 1, 
  "model": "ishtar_base.permittype", 
  "fields": {
   "comment": "", 
   "available": true, 
   "txt_idx": "pc", 
   "label": "PC"
  }
 }, 
 {
  "pk": 2, 
  "model": "ishtar_base.permittype", 
  "fields": {
   "comment": "", 
   "available": true, 
   "txt_idx": "pa", 
   "label": "PA"
  }
 }, 
 {
  "pk": 3, 
  "model": "ishtar_base.permittype", 
  "fields": {
   "comment": "", 
   "available": true, 
   "txt_idx": "zac", 
   "label": "Dossier de r\u00e9alisation de ZAC"
  }
 }, 
 {
  "pk": 4, 
  "model": "ishtar_base.permittype", 
  "fields": {
   "comment": "", 
   "available": true, 
   "txt_idx": "ei", 
   "label": "Etude d'impact"
  }
 }, 
 {
  "pk": 5, 
  "model": "ishtar_base.permittype", 
  "fields": {
   "comment": "Certificat d'urbanisme", 
   "available": true, 
   "txt_idx": "cu", 
   "label": "CU"
  }
 }, 
 {
  "pk": 6, 
  "model": "ishtar_base.permittype", 
  "fields": {
   "comment": "", 
   "available": true, 
   "txt_idx": "dp", 
   "label": "DP"
  }
 }, 
 {
  "pk": 5, 
  "model": "ishtar_base.saisinetype", 
  "fields": {
   "comment": "Article 6\r\n\r\n Lorsqu'il dispose d'informations lui indiquant qu'un projet qui ne lui est pas transmis en application de l'arr\u00eat\u00e9 mentionn\u00e9 \u00e0 l'article 5 est n\u00e9anmoins susceptible d'affecter des \u00e9l\u00e9ments du patrimoine arch\u00e9ologique, le pr\u00e9fet de r\u00e9gion peut demander au maire de lui communiquer au cours de l'instruction, selon le cas, le dossier de demande de permis de construire, de permis d'am\u00e9nager, de permis de d\u00e9molir ou le dossier de r\u00e9alisation de zone d'am\u00e9nagement concert\u00e9 qui correspond \u00e0 ce projet.\r\n\r\nIl peut, pour le m\u00eame motif, demander au maire de lui communiquer le dossier d'une d\u00e9claration pr\u00e9alable d\u00e9pos\u00e9e en application de l'article L. 421-4 du code de l'urbanisme.", 
   "available": true, 
   "txt_idx": "Article_6", 
   "delay": 30, 
   "label": "Auto-saisine"
  }
 }, 
 {
  "pk": 3, 
  "model": "ishtar_base.saisinetype", 
  "fields": {
   "comment": " Les am\u00e9nageurs peuvent, avant de d\u00e9poser une demande pour obtenir les autorisations requises par les lois et r\u00e8glements ou avant d'engager toute autre proc\u00e9dure, saisir le pr\u00e9fet de r\u00e9gion afin qu'il examine si leur projet est susceptible de donner lieu \u00e0 des prescriptions arch\u00e9ologiques.\r\n\r\nA cette fin, ils produisent un dossier qui comporte un plan parcellaire et les r\u00e9f\u00e9rences cadastrales, le descriptif du projet et son emplacement sur le terrain d'assiette ainsi que, le cas \u00e9ch\u00e9ant, une notice pr\u00e9cisant les modalit\u00e9s techniques envisag\u00e9es pour l'ex\u00e9cution des travaux.\r\n\r\nSi le pr\u00e9fet de r\u00e9gion constate que le projet est susceptible d'affecter des \u00e9l\u00e9ments du patrimoine arch\u00e9ologique, il informe le demandeur, dans le d\u00e9lai de deux mois \u00e0 compter de la r\u00e9ception de la demande, que le projet qu'il lui a pr\u00e9sent\u00e9 donnera lieu \u00e0 des prescriptions de diagnostic arch\u00e9ologique.", 
   "available": true, 
   "txt_idx": "Article_10", 
   "delay": 60, 
   "label": "Demande d'avis (Art R523-12)"
  }
 }, 
 {
  "pk": 4, 
  "model": "ishtar_base.saisinetype", 
  "fields": {
   "comment": " Si le pr\u00e9fet de r\u00e9gion a fait conna\u00eetre, en application de l'article 10, la n\u00e9cessit\u00e9 d'un diagnostic, l'am\u00e9nageur peut le saisir d'une demande anticip\u00e9e de prescription.\r\n\r\nLe pr\u00e9fet de r\u00e9gion prescrit alors, dans les conditions pr\u00e9vues par le pr\u00e9sent d\u00e9cret, la r\u00e9alisation d'un diagnostic arch\u00e9ologique et, si des \u00e9l\u00e9ments du patrimoine arch\u00e9ologique pr\u00e9sents sur le site sont d\u00e9j\u00e0 connus, prend les autres mesures pr\u00e9vues \u00e0 l'article 14.\r\n\r\nLa redevance d'arch\u00e9ologie pr\u00e9ventive correspondante est due par le demandeur, conform\u00e9ment au dernier alin\u00e9a de l'article L. 524-4 du code du patrimoine.", 
   "available": true, 
   "txt_idx": "Article_12", 
   "delay": 30, 
   "label": "Demande volontaire de r\u00e9alisation anticip\u00e9e de diagnostic (Art R523-14)"
  }
 }, 
 {
  "pk": 2, 
  "model": "ishtar_base.saisinetype", 
  "fields": {
   "comment": " I. - Dans les cas mentionn\u00e9s aux 1\u00b0 \u00e0 5\u00b0 de l'article 4, le pr\u00e9fet de r\u00e9gion est saisi :\r\n\r\n1\u00b0 Pour les permis de construire, les permis d'am\u00e9nager et les permis de d\u00e9molir, par le pr\u00e9fet de d\u00e9partement qui lui adresse, d\u00e8s qu'il a re\u00e7u les \u00e9l\u00e9ments transmis par le maire en application des articles R. 423-7 \u00e0 R. 423-9 du code de l'urbanisme, les pi\u00e8ces pr\u00e9vues par le dernier alin\u00e9a de l'article R. 423-2, faisant notamment appara\u00eetre l'emplacement pr\u00e9vu des travaux sur le terrain d'assiette, leur superficie, leur impact sur le sous-sol ;\r\n\r\n2\u00b0 Pour les zones d'am\u00e9nagement concert\u00e9, par la personne publique ayant pris l'initiative de la cr\u00e9ation de la zone qui adresse au pr\u00e9fet de r\u00e9gion le dossier de r\u00e9alisation approuv\u00e9 pr\u00e9vu \u00e0 l'article R. 311-7 du code de l'urbanisme ;\r\n\r\n3\u00b0 Abrog\u00e9\r\n\r\n4\u00b0 Pour les am\u00e9nagements et ouvrages mentionn\u00e9s au 5\u00b0 de l'article 4 qui sont soumis \u00e0 une autorisation administrative autre qu'une autorisation d'urbanisme, par le service charg\u00e9 de recevoir la demande d'autorisation, qui adresse une copie du dossier de demande au pr\u00e9fet de r\u00e9gion ;\r\n\r\n5\u00b0 Pour les am\u00e9nagements et ouvrages mentionn\u00e9s au 5\u00b0 de l'article 4 qui ne sont pas soumis \u00e0 une autorisation administrative, par l'am\u00e9nageur. Celui-ci adresse au pr\u00e9fet de r\u00e9gion un dossier d\u00e9crivant les travaux projet\u00e9s, notamment leur emplacement pr\u00e9vu sur le terrain d'assiette, leur superficie, leur impact sur le sous-sol et indiquant la date \u00e0 laquelle ils ont \u00e9t\u00e9 arr\u00eat\u00e9s.\r\n\r\nII. - Pour les travaux sur des monuments historiques mentionn\u00e9s au 6\u00b0 de l'article 4, la saisine du pr\u00e9fet de r\u00e9gion au titre de l'autorisation exig\u00e9e par l'article L. 621-9 du code du patrimoine vaut saisine au titre du pr\u00e9sent d\u00e9cret.", 
   "available": true, 
   "txt_idx": "Article_8", 
   "delay": 21, 
   "label": "Saisine simple (Art R523-10)"
  }
 }, 
 {
  "pk": 3, 
  "model": "ishtar_base.operationtype", 
  "fields": {
   "comment": "", 
   "available": true, 
   "txt_idx": "prog_excavation", 
   "label": "Fouille programm\u00e9e"
  }
 }, 
 {
  "pk": 4, 
  "model": "ishtar_base.operationtype", 
  "fields": {
   "comment": "Pas assez gros pour \u00eatre une fouille, mais porte n\u00e9anmoins atteinte au sous-sol.", 
   "available": true, 
   "txt_idx": "Sampling", 
   "label": "Sondage"
  }
 }, 
 {
  "pk": 5, 
  "model": "ishtar_base.operationtype", 
  "fields": {
   "comment": "Une campagne de prospection sur un th\u00e8me particulier", 
   "available": true, 
   "txt_idx": "thematic_survey", 
   "label": "Prospection th\u00e9matique"
  }
 }, 
 {
  "pk": 6, 
  "model": "ishtar_base.operationtype", 
  "fields": {
   "comment": "Prospection visant \u00e0 d\u00e9tecter tout type de vestiges  (ou presque) sur une surface donn\u00e9e. ", 
   "available": true, 
   "txt_idx": "inventory_survey", 
   "label": "Prospection inventaire"
  }
 }, 
 {
  "pk": 10, 
  "model": "ishtar_base.operationtype", 
  "fields": {
   "comment": "", 
   "available": true, 
   "txt_idx": "casual_find", 
   "label": "D\u00e9couverte fortuite"
  }
 }, 
 {
  "pk": 7, 
  "model": "ishtar_base.operationtype", 
  "fields": {
   "comment": " Ancien type d'op\u00e9ration, entre la diagnostic et la fouille pr\u00e9ventive", 
   "available": false, 
   "txt_idx": "evaluation", 
   "label": "\u00c9valuation"
  }
 }, 
 {
  "pk": 8, 
  "model": "ishtar_base.operationtype", 
  "fields": {
   "comment": "Ancien type d'op\u00e9ration", 
   "available": false, 
   "txt_idx": "emergency_excavation", 
   "label": "Sauvetage Urgent"
  }
 }, 
 {
  "pk": 11, 
  "model": "ishtar_base.operationtype", 
  "fields": {
   "comment": "", 
   "available": true, 
   "txt_idx": "research_program", 
   "label": "Projet Collectif de Recherche"
  }
 }, 
 {
  "pk": 12, 
  "model": "ishtar_base.operationtype", 
  "fields": {
   "comment": "Type d'op\u00e9ration, d'ordinaire ancienne, \u00e0 d\u00e9terminer", 
   "available": true, 
   "txt_idx": "unknown", 
   "label": "Ind\u00e9termin\u00e9"
  }
 }, 
 {
  "pk": 2, 
  "model": "ishtar_base.operationtype", 
  "fields": {
   "comment": "A pr\u00e9ciser", 
   "available": true, 
   "txt_idx": "prev_excavation", 
   "label": "Fouille pr\u00e9ventive"
  }
 }, 
 {
  "pk": 1, 
  "model": "ishtar_base.operationtype", 
  "fields": {
   "comment": "Une op\u00e9ration arch\u00e9ologique visant \u00e0 qualifier et quantifier la pr\u00e9sence de vestiges sur une surface donn\u00e9e.", 
   "available": true, 
   "txt_idx": "arch_diagnostic", 
   "label": "Diagnostic"
  }
 }, 
 {
  "pk": 13, 
  "model": "ishtar_base.operationtype", 
  "fields": {
   "comment": "Fouille programm\u00e9e sur plusieurs ann\u00e9es; g\u00e9n\u00e8re plusieurs rapports, a pr\u00e9ciser", 
   "available": true, 
   "txt_idx": "pluri_annual_excavation", 
   "label": "Fouille Programm\u00e9e Pluriannuelle"
  }
 }, 
 {
  "pk": 14, 
  "model": "ishtar_base.operationtype", 
  "fields": {
   "comment": "Ancien type d'op\u00e9ration, n'est plus utilis\u00e9", 
   "available": true, 
   "txt_idx": "programed_emergency", 
   "label": "Sauvetage Programm\u00e9"
  }
 }, 
 {
  "pk": 1, 
  "model": "ishtar_base.remaintype", 
  "fields": {
   "comment": "", 
   "available": true, 
   "txt_idx": "villa", 
   "label": "villa"
  }
 }, 
 {
  "pk": 2, 
  "model": "ishtar_base.remaintype", 
  "fields": {
   "comment": "", 
   "available": true, 
   "txt_idx": "enclosure", 
   "label": "enclos"
  }
 }, 
 {
  "pk": 3, 
  "model": "ishtar_base.remaintype", 
  "fields": {
   "comment": "", 
   "available": true, 
   "txt_idx": "church", 
   "label": "\u00e9glise"
  }
 }, 
 {
  "pk": 4, 
  "model": "ishtar_base.remaintype", 
  "fields": {
   "comment": "", 
   "available": true, 
   "txt_idx": "pit", 
   "label": "fosse"
  }
 }, 
 {
  "pk": 5, 
  "model": "ishtar_base.remaintype", 
  "fields": {
   "comment": "", 
   "available": true, 
   "txt_idx": "cairn", 
   "label": "cairn"
  }
 }, 
 {
  "pk": 6, 
  "model": "ishtar_base.remaintype", 
  "fields": {
   "comment": "", 
   "available": true, 
   "txt_idx": "ditch", 
   "label": "foss\u00e9"
  }
 }, 
 {
  "pk": 7, 
  "model": "ishtar_base.remaintype", 
  "fields": {
   "comment": "", 
   "available": true, 
   "txt_idx": "post_hole", 
   "label": "trous de poteaux"
  }
 }, 
 {
  "pk": 1, 
  "model": "ishtar_base.period", 
  "fields": {
   "comment": "", 
   "available": true, 
   "parent": null, 
   "end_date": -10000, 
   "order": 2000, 
   "label": "Pal\u00e9olithique", 
   "start_date": -450000, 
   "txt_idx": "paleolithic"
  }
 }, 
 {
  "pk": 2, 
  "model": "ishtar_base.period", 
  "fields": {
   "comment": "1100, 'Pal\u00e9olithique ancien', , )", 
   "available": true, 
   "parent": 1, 
   "end_date": -150000, 
   "order": 1100, 
   "label": "Pal\u00e9olithique ancien", 
   "start_date": -450000, 
   "txt_idx": "ancien_paleolithic"
  }
 }, 
 {
  "pk": 3, 
  "model": "ishtar_base.period", 
  "fields": {
   "comment": "1200, '', , ),", 
   "available": true, 
   "parent": 1, 
   "end_date": -35000, 
   "order": 1200, 
   "label": "Pal\u00e9olithique moyen", 
   "start_date": -150000, 
   "txt_idx": "middle_paleolithic"
  }
 }, 
 {
  "pk": 4, 
  "model": "ishtar_base.period", 
  "fields": {
   "comment": "", 
   "available": true, 
   "parent": 1, 
   "end_date": -12000, 
   "order": 1300, 
   "label": "Pal\u00e9olithique sup\u00e9rieur", 
   "start_date": -35000, 
   "txt_idx": "late_paleolithic"
  }
 }, 
 {
  "pk": 5, 
  "model": "ishtar_base.period", 
  "fields": {
   "comment": "", 
   "available": true, 
   "parent": 1, 
   "end_date": -10000, 
   "order": 1400, 
   "label": "Pal\u00e9olithique sup\u00e9rieur final", 
   "start_date": -12000, 
   "txt_idx": "final_paleolithic"
  }
 }, 
 {
  "pk": 6, 
  "model": "ishtar_base.period", 
  "fields": {
   "comment": "", 
   "available": true, 
   "parent": null, 
   "end_date": -5000, 
   "order": 3000, 
   "label": "M\u00e9solithique", 
   "start_date": -10000, 
   "txt_idx": "mesolithic"
  }
 }, 
 {
  "pk": 7, 
  "model": "ishtar_base.period", 
  "fields": {
   "comment": "", 
   "available": true, 
   "parent": 6, 
   "end_date": -7000, 
   "order": 2100, 
   "label": "M\u00e9solithique ancien", 
   "start_date": -10000, 
   "txt_idx": "old_mesolithic"
  }
 }, 
 {
  "pk": 8, 
  "model": "ishtar_base.period", 
  "fields": {
   "comment": "", 
   "available": false, 
   "parent": 6, 
   "end_date": 0, 
   "order": 2200, 
   "label": "M\u00e9solithique moyen", 
   "start_date": 0, 
   "txt_idx": "middle_mesolithic"
  }
 }, 
 {
  "pk": 9, 
  "model": "ishtar_base.period", 
  "fields": {
   "comment": "", 
   "available": true, 
   "parent": 6, 
   "end_date": -5000, 
   "order": 2300, 
   "label": "M\u00e9solithique r\u00e9cent", 
   "start_date": -7000, 
   "txt_idx": "recent_mesolithic"
  }
 }, 
 {
  "pk": 10, 
  "model": "ishtar_base.period", 
  "fields": {
   "comment": "", 
   "available": true, 
   "parent": null, 
   "end_date": -2000, 
   "order": 4000, 
   "label": "N\u00e9olithique", 
   "start_date": -5500, 
   "txt_idx": "neolithic"
  }
 }, 
 {
  "pk": 11, 
  "model": "ishtar_base.period", 
  "fields": {
   "comment": "", 
   "available": true, 
   "parent": 10, 
   "end_date": -4500, 
   "order": 3100, 
   "label": "N\u00e9olithique ancien", 
   "start_date": -5500, 
   "txt_idx": "old_neolithic"
  }
 }, 
 {
  "pk": 12, 
  "model": "ishtar_base.period", 
  "fields": {
   "comment": "", 
   "available": true, 
   "parent": 10, 
   "end_date": -300, 
   "order": 3200, 
   "label": "N\u00e9olithique moyen", 
   "start_date": -4500, 
   "txt_idx": "middle_neolithic"
  }
 }, 
 {
  "pk": 13, 
  "model": "ishtar_base.period", 
  "fields": {
   "comment": "", 
   "available": true, 
   "parent": 10, 
   "end_date": -2500, 
   "order": 3300, 
   "label": "N\u00e9olithique r\u00e9cent", 
   "start_date": -3200, 
   "txt_idx": "recent_neolithic"
  }
 }, 
 {
  "pk": 14, 
  "model": "ishtar_base.period", 
  "fields": {
   "comment": "", 
   "available": true, 
   "parent": 10, 
   "end_date": -2000, 
   "order": 3400, 
   "label": "N\u00e9olithique final", 
   "start_date": -2800, 
   "txt_idx": "final_neolithic"
  }
 }, 
 {
  "pk": 15, 
  "model": "ishtar_base.period", 
  "fields": {
   "comment": "", 
   "available": true, 
   "parent": null, 
   "end_date": -40, 
   "order": 5000, 
   "label": "Protohistoire", 
   "start_date": -2000, 
   "txt_idx": "protohistory"
  }
 }, 
 {
  "pk": 16, 
  "model": "ishtar_base.period", 
  "fields": {
   "comment": "", 
   "available": true, 
   "parent": 15, 
   "end_date": -750, 
   "order": 4100, 
   "label": "\u00c2ge du Bronze", 
   "start_date": -2000, 
   "txt_idx": "bronze_age"
  }
 }, 
 {
  "pk": 17, 
  "model": "ishtar_base.period", 
  "fields": {
   "comment": "", 
   "available": true, 
   "parent": 15, 
   "end_date": -40, 
   "order": 4200, 
   "label": "\u00c2ge du Fer", 
   "start_date": -800, 
   "txt_idx": "iron_age"
  }
 }, 
 {
  "pk": 18, 
  "model": "ishtar_base.period", 
  "fields": {
   "comment": "", 
   "available": true, 
   "parent": 16, 
   "end_date": -1600, 
   "order": 4110, 
   "label": "\u00c2ge du Bronze ancien", 
   "start_date": -2000, 
   "txt_idx": "old_bronze_age"
  }
 }, 
 {
  "pk": 19, 
  "model": "ishtar_base.period", 
  "fields": {
   "comment": "", 
   "available": true, 
   "parent": 16, 
   "end_date": -1200, 
   "order": 4120, 
   "label": "\u00c2ge du Bronze moyen", 
   "start_date": -1600, 
   "txt_idx": "middle_bronze_age"
  }
 }, 
 {
  "pk": 20, 
  "model": "ishtar_base.period", 
  "fields": {
   "comment": "", 
   "available": true, 
   "parent": 16, 
   "end_date": -750, 
   "order": 4130, 
   "label": "\u00c2ge du Bronze final", 
   "start_date": -1200, 
   "txt_idx": "final_bronze_age"
  }
 }, 
 {
  "pk": 21, 
  "model": "ishtar_base.period", 
  "fields": {
   "comment": "", 
   "available": true, 
   "parent": 17, 
   "end_date": -450, 
   "order": 4210, 
   "label": "Premier \u00c2ge du Fer", 
   "start_date": -800, 
   "txt_idx": "first_iron_age"
  }
 }, 
 {
  "pk": 22, 
  "model": "ishtar_base.period", 
  "fields": {
   "comment": "", 
   "available": true, 
   "parent": 17, 
   "end_date": -40, 
   "order": 4220, 
   "label": "Deuxi\u00e8me \u00c2ge du Fer", 
   "start_date": -500, 
   "txt_idx": "second_iron_age"
  }
 }, 
 {
  "pk": 23, 
  "model": "ishtar_base.period", 
  "fields": {
   "comment": "", 
   "available": true, 
   "parent": null, 
   "end_date": 476, 
   "order": 6000, 
   "label": "Gallo-romain", 
   "start_date": -40, 
   "txt_idx": "gallo-roman"
  }
 }, 
 {
  "pk": 24, 
  "model": "ishtar_base.period", 
  "fields": {
   "comment": "", 
   "available": true, 
   "parent": 23, 
   "end_date": -27, 
   "order": 5100, 
   "label": "R\u00e9publique", 
   "start_date": -40, 
   "txt_idx": "republic"
  }
 }, 
 {
  "pk": 25, 
  "model": "ishtar_base.period", 
  "fields": {
   "comment": "", 
   "available": true, 
   "parent": 23, 
   "end_date": 192, 
   "order": 5200, 
   "label": "Haut-empire", 
   "start_date": -27, 
   "txt_idx": "high-empire"
  }
 }, 
 {
  "pk": 26, 
  "model": "ishtar_base.period", 
  "fields": {
   "comment": "", 
   "available": true, 
   "parent": 23, 
   "end_date": 476, 
   "order": 5300, 
   "label": "Bas-empire", 
   "start_date": 192, 
   "txt_idx": "low_empire"
  }
 }, 
 {
  "pk": 27, 
  "model": "ishtar_base.period", 
  "fields": {
   "comment": "", 
   "available": true, 
   "parent": null, 
   "end_date": 1492, 
   "order": 7000, 
   "label": "Moyen-\u00e2ge", 
   "start_date": 476, 
   "txt_idx": "middle_age"
  }
 }, 
 {
  "pk": 29, 
  "model": "ishtar_base.period", 
  "fields": {
   "comment": "", 
   "available": true, 
   "parent": 27, 
   "end_date": 1204, 
   "order": 6200, 
   "label": "Moyen-\u00e2ge classique", 
   "start_date": 987, 
   "txt_idx": "classic_middle_age"
  }
 }, 
 {
  "pk": 30, 
  "model": "ishtar_base.period", 
  "fields": {
   "comment": "", 
   "available": true, 
   "parent": 27, 
   "end_date": 1492, 
   "order": 6300, 
   "label": "Bas moyen-\u00e2ge", 
   "start_date": 1204, 
   "txt_idx": "low_middle_age"
  }
 }, 
 {
  "pk": 31, 
  "model": "ishtar_base.period", 
  "fields": {
   "comment": "", 
   "available": true, 
   "parent": null, 
   "end_date": 2011, 
   "order": 8000, 
   "label": "P\u00e9riode r\u00e9cente", 
   "start_date": 1492, 
   "txt_idx": "recent_times"
  }
 }, 
 {
  "pk": 32, 
  "model": "ishtar_base.period", 
  "fields": {
   "comment": "", 
   "available": true, 
   "parent": 31, 
   "end_date": 1815, 
   "order": 7100, 
   "label": "Epoque moderne", 
   "start_date": 1492, 
   "txt_idx": "modern"
  }
 }, 
 {
  "pk": 33, 
  "model": "ishtar_base.period", 
  "fields": {
   "comment": "", 
   "available": true, 
   "parent": 31, 
   "end_date": 2011, 
   "order": 7200, 
   "label": "Epoque contemporaine", 
   "start_date": 1815, 
   "txt_idx": "contemporan"
  }
 }, 
 {
  "pk": 34, 
  "model": "ishtar_base.period", 
  "fields": {
   "comment": "", 
   "available": true, 
   "parent": null, 
   "end_date": 0, 
   "order": 0, 
   "label": "Epoque ind\u00e9termin\u00e9e", 
   "start_date": 0, 
   "txt_idx": "indetermined"
  }
 }, 
 {
  "pk": 35, 
  "model": "ishtar_base.period", 
  "fields": {
   "comment": "", 
   "available": true, 
   "parent": null, 
   "end_date": 0, 
   "order": 10000, 
   "label": "Non-renseign\u00e9", 
   "start_date": 0, 
   "txt_idx": "not_yet_documented"
  }
 }, 
 {
  "pk": 28, 
  "model": "ishtar_base.period", 
  "fields": {
   "comment": "", 
   "available": true, 
   "parent": 27, 
   "end_date": 987, 
   "order": 6100, 
   "label": "Haut moyen-\u00e2ge", 
   "start_date": 476, 
   "txt_idx": "high_middle_age"
  }
 }, 
 {
  "pk": 2, 
  "model": "ishtar_base.datingtype", 
  "fields": {
   "comment": "Une \u00e9tude du mobilier est la source de datation", 
   "available": true, 
   "txt_idx": "from_artefact", 
   "label": "D'apr\u00e8s \u00e9tude du mobilier"
  }
 }, 
 {
  "pk": 1, 
  "model": "ishtar_base.datingtype", 
  "fields": {
   "comment": "D'apr\u00e8s une datation de type C14, OSL, TL, arch\u00e9omagn\u00e9tisme, etc, forunissant une date en BPcal avec une marge.", 
   "available": true, 
   "txt_idx": "from_absolute_dating", 
   "label": "D'apr\u00e8s datation absolue"
  }
 }, 
 {
  "pk": 2, 
  "model": "ishtar_base.datingquality", 
  "fields": {
   "comment": "datation a v\u00e9rifier", 
   "available": true, 
   "txt_idx": "estimated", 
   "label": "Estim\u00e9e "
  }
 }, 
 {
  "pk": 1, 
  "model": "ishtar_base.datingquality", 
  "fields": {
   "comment": "Datation fond\u00e9e sur des faits", 
   "available": true, 
   "txt_idx": "sure", 
   "label": "Aver\u00e9e"
  }
 }, 
 {
  "pk": 1, 
  "model": "ishtar_base.unit", 
  "fields": {
   "comment": "Cette unit\u00e9 n'a pas de volume", 
   "available": true, 
   "parent": null, 
   "label": "N\u00e9gative", 
   "order": 100, 
   "txt_idx": "negative"
  }
 }, 
 {
  "pk": 2, 
  "model": "ishtar_base.unit", 
  "fields": {
   "comment": "", 
   "available": true, 
   "parent": 1, 
   "label": "Creusement", 
   "order": 110, 
   "txt_idx": "digging"
  }
 }, 
 {
  "pk": 3, 
  "model": "ishtar_base.unit", 
  "fields": {
   "comment": "", 
   "available": true, 
   "parent": 1, 
   "label": "D\u00e9rasement", 
   "order": 120, 
   "txt_idx": "partial_destruction"
  }
 }, 
 {
  "pk": 4, 
  "model": "ishtar_base.unit", 
  "fields": {
   "comment": "", 
   "available": true, 
   "parent": null, 
   "label": "Couche", 
   "order": 200, 
   "txt_idx": "layer"
  }
 }, 
 {
  "pk": 5, 
  "model": "ishtar_base.unit", 
  "fields": {
   "comment": "", 
   "available": true, 
   "parent": 4, 
   "label": "Couche construite", 
   "order": 210, 
   "txt_idx": "builded_layer"
  }
 }, 
 {
  "pk": 6, 
  "model": "ishtar_base.unit", 
  "fields": {
   "comment": "", 
   "available": true, 
   "parent": 4, 
   "label": "Remblai", 
   "order": 220, 
   "txt_idx": "embankment"
  }
 }, 
 {
  "pk": 7, 
  "model": "ishtar_base.unit", 
  "fields": {
   "comment": "", 
   "available": true, 
   "parent": null, 
   "label": "Alt\u00e9ration", 
   "order": 300, 
   "txt_idx": "alteration"
  }
 }, 
 {
  "pk": 8, 
  "model": "ishtar_base.unit", 
  "fields": {
   "comment": "", 
   "available": true, 
   "parent": 7, 
   "label": "Impact thermique", 
   "order": 310, 
   "txt_idx": "thermal_impact"
  }
 }, 
 {
  "pk": 9, 
  "model": "ishtar_base.unit", 
  "fields": {
   "comment": "Unit\u00e9 g\u00e9n\u00e9rale (d'ordinaire virtuelle) pouvant regrouper du mobilier trouver en dehors d'un contexte spatialis\u00e9 : mobilier trouver lors d'un d\u00e9capage, sous une semelle d'un fouilleur, dans les d\u00e9blais, etc.", 
   "available": true, 
   "parent": null, 
   "label": "Hors contexte", 
   "order": 1, 
   "txt_idx": "not_in_context"
  }
 }, 
 {
  "pk": 10, 
  "model": "ishtar_base.unit", 
  "fields": {
   "comment": "Unit\u00e9 repr\u00e9sentant une partie d'un niveau d\u00e9coup\u00e9 en carr\u00e9s r\u00e9f\u00e9renc\u00e9s.", 
   "available": true, 
   "parent": null, 
   "label": "Carr\u00e9", 
   "order": 10, 
   "txt_idx": "square"
  }
 }, 
 {
  "pk": 1, 
  "model": "ishtar_base.activitytype", 
  "fields": {
   "comment": "Unit\u00e9 enregistrement qui n'est pas directement d'origine anthropique. ", 
   "available": true, 
   "txt_idx": "natural", 
   "order": 1000, 
   "label": "Naturelle"
  }
 }, 
 {
  "pk": 2, 
  "model": "ishtar_base.activitytype", 
  "fields": {
   "comment": "Unit\u00e9 \u00e9labor\u00e9e par l'homme, comme une mur ou un sol am\u00e9nag\u00e9 par exemple", 
   "available": true, 
   "txt_idx": "construction", 
   "order": 1100, 
   "label": "Construction"
  }
 }, 
 {
  "pk": 3, 
  "model": "ishtar_base.activitytype", 
  "fields": {
   "comment": "Unit\u00e9 r\u00e9sultant de l'arr\u00eat d'anthropisation", 
   "available": true, 
   "txt_idx": "desertion", 
   "order": 1200, 
   "label": "Abandon"
  }
 }, 
 {
  "pk": 4, 
  "model": "ishtar_base.activitytype", 
  "fields": {
   "comment": "Unit\u00e9 li\u00e9e \u00e0 l'anthropisation elle-m\u00eame", 
   "available": true, 
   "txt_idx": "occupation", 
   "order": 1300, 
   "label": "Occupation"
  }
 }, 
 {
  "pk": 1, 
  "model": "ishtar_base.identificationtype", 
  "fields": {
   "comment": "Niveau cultiv\u00e9 ou non, actuel.", 
   "available": true, 
   "txt_idx": "soil", 
   "order": 1000, 
   "label": "Terre v\u00e9g\u00e9tale"
  }
 }, 
 {
  "pk": 2, 
  "model": "ishtar_base.identificationtype", 
  "fields": {
   "comment": "", 
   "available": true, 
   "txt_idx": "masonry", 
   "order": 1100, 
   "label": "Ma\u00e7onnerie"
  }
 }, 
 {
  "pk": 3, 
  "model": "ishtar_base.identificationtype", 
  "fields": {
   "comment": "", 
   "available": true, 
   "txt_idx": "wall", 
   "order": 1200, 
   "label": "Mur"
  }
 }, 
 {
  "pk": 4, 
  "model": "ishtar_base.identificationtype", 
  "fields": {
   "comment": "", 
   "available": true, 
   "txt_idx": "occupation_level", 
   "order": 1300, 
   "label": "Niveau d'occupation"
  }
 }, 
 {
  "pk": 5, 
  "model": "ishtar_base.identificationtype", 
  "fields": {
   "comment": "", 
   "available": true, 
   "txt_idx": "desertion_level", 
   "order": 1400, 
   "label": "Niveau d'abandon"
  }
 }, 
 {
  "pk": 6, 
  "model": "ishtar_base.identificationtype", 
  "fields": {
   "comment": "", 
   "available": true, 
   "txt_idx": "geological_level", 
   "order": 1400, 
   "label": "Niveau g\u00e9ologique"
  }
 }, 
 {
  "pk": 7, 
  "model": "ishtar_base.identificationtype", 
  "fields": {
   "comment": "", 
   "available": true, 
   "txt_idx": "embankment", 
   "order": 1500, 
   "label": "Remblai"
  }
 }, 
 {
  "pk": 8, 
  "model": "ishtar_base.identificationtype", 
  "fields": {
   "comment": "", 
   "available": true, 
   "txt_idx": "archaeological_soil", 
   "order": 1600, 
   "label": "Sol arch\u00e9ologique"
  }
 }, 
 {
  "pk": 9, 
  "model": "ishtar_base.identificationtype", 
  "fields": {
   "comment": "", 
   "available": true, 
   "txt_idx": "foundation_level", 
   "order": 1700, 
   "label": "Radier"
  }
 }, 
 {
  "pk": 10, 
  "model": "ishtar_base.identificationtype", 
  "fields": {
   "comment": "", 
   "available": true, 
   "txt_idx": "digging", 
   "order": 1800, 
   "label": "Creusement"
  }
 }, 
 {
  "pk": 11, 
  "model": "ishtar_base.identificationtype", 
  "fields": {
   "comment": "", 
   "available": true, 
   "txt_idx": "colluvial_unit", 
   "order": 1800, 
   "label": "Colluvions"
  }
 }, 
 {
  "pk": 12, 
  "model": "ishtar_base.identificationtype", 
  "fields": {
   "comment": "", 
   "available": true, 
   "txt_idx": "windthrow", 
   "order": 1900, 
   "label": "Chablis"
  }
 }, 
 {
  "pk": 13, 
  "model": "ishtar_base.identificationtype", 
  "fields": {
   "comment": "", 
   "available": true, 
   "txt_idx": "filling", 
   "order": 2000, 
   "label": "Comblement"
  }
 }, 
 {
  "pk": 14, 
  "model": "ishtar_base.identificationtype", 
  "fields": {
   "comment": "", 
   "available": true, 
   "txt_idx": "unknown", 
   "order": 100, 
   "label": "Ind\u00e9termin\u00e9"
  }
 }, 
 {
  "pk": 1, 
  "model": "ishtar_base.materialtype", 
  "fields": {
   "comment": "", 
   "available": true, 
   "parent": null, 
   "label": "M\u00e9tal", 
   "recommendation": "Hygrom\u00e9trie contr\u00f4l\u00e9e, variation de temp\u00e9rature faible", 
   "txt_idx": "metal"
  }
 }, 
 {
  "pk": 3, 
  "model": "ishtar_base.materialtype", 
  "fields": {
   "comment": "", 
   "available": true, 
   "parent": 2, 
   "label": "Os animal", 
   "recommendation": "idem os", 
   "txt_idx": "animal_bone"
  }
 }, 
 {
  "pk": 4, 
  "model": "ishtar_base.materialtype", 
  "fields": {
   "comment": "", 
   "available": true, 
   "parent": 2, 
   "label": "Os humain", 
   "recommendation": "idem os", 
   "txt_idx": "human_bone"
  }
 }, 
 {
  "pk": 5, 
  "model": "ishtar_base.materialtype", 
  "fields": {
   "comment": "", 
   "available": true, 
   "parent": null, 
   "label": "Verre", 
   "recommendation": "fragile, oxydation, etc.", 
   "txt_idx": "glass"
  }
 }, 
 {
  "pk": 7, 
  "model": "ishtar_base.materialtype", 
  "fields": {
   "comment": "", 
   "available": true, 
   "parent": null, 
   "label": "Min\u00e9ral", 
   "recommendation": "a d\u00e9tailler", 
   "txt_idx": "mineral"
  }
 }, 
 {
  "pk": 15, 
  "model": "ishtar_base.materialtype", 
  "fields": {
   "comment": "", 
   "available": true, 
   "parent": null, 
   "label": "Autre", 
   "recommendation": "a d\u00e9finir", 
   "txt_idx": "other"
  }
 }, 
 {
  "pk": 20, 
  "model": "ishtar_base.materialtype", 
  "fields": {
   "comment": "", 
   "available": true, 
   "parent": null, 
   "label": "Terre cuite", 
   "recommendation": "\u00e0 d\u00e9finir", 
   "txt_idx": "earthenware"
  }
 }, 
 {
  "pk": 9, 
  "model": "ishtar_base.materialtype", 
  "fields": {
   "comment": "", 
   "available": true, 
   "parent": 10, 
   "label": "Bronze", 
   "recommendation": "blah", 
   "txt_idx": "bronze"
  }
 }, 
 {
  "pk": 26, 
  "model": "ishtar_base.materialtype", 
  "fields": {
   "comment": "", 
   "available": true, 
   "parent": null, 
   "label": "Organique", 
   "recommendation": "\u00e0 d\u00e9finir", 
   "txt_idx": "organic"
  }
 }, 
 {
  "pk": 2, 
  "model": "ishtar_base.materialtype", 
  "fields": {
   "comment": "", 
   "available": true, 
   "parent": 28, 
   "label": "Os", 
   "recommendation": "Hygrom\u00e9trie contr\u00f4l\u00e9e, variations de temp\u00e9rature faible", 
   "txt_idx": "bone"
  }
 }, 
 {
  "pk": 27, 
  "model": "ishtar_base.materialtype", 
  "fields": {
   "comment": "cuir, tissu, tabletterie, vannerie, cordage, bois (hors construction), tout objet travaill\u00e9 (transform\u00e9) en mat\u00e9riau organique", 
   "available": true, 
   "parent": 26, 
   "label": "Organique travaill\u00e9", 
   "recommendation": "\u00e0 definir", 
   "txt_idx": "worked_organic"
  }
 }, 
 {
  "pk": 23, 
  "model": "ishtar_base.materialtype", 
  "fields": {
   "comment": "tout ce qui a rapport \u00e0 la pierre, \u00e0 la taille et \u00e0 l'industrie de la pierre durant la pr\u00e9histoire", 
   "available": true, 
   "parent": 7, 
   "label": "Lithique", 
   "recommendation": "\u00e0 d\u00e9finir", 
   "txt_idx": "lithic"
  }
 }, 
 {
  "pk": 24, 
  "model": "ishtar_base.materialtype", 
  "fields": {
   "comment": "tout \u00e9l\u00e9ment en pierre intervenant dans la construction : pierre taill\u00e9e, moellon, pierre sculpt\u00e9e, statue \u2026", 
   "available": true, 
   "parent": 7, 
   "label": "Lapidaire", 
   "recommendation": "\u00e0 d\u00e9finir", 
   "txt_idx": "stone"
  }
 }, 
 {
  "pk": 25, 
  "model": "ishtar_base.materialtype", 
  "fields": {
   "comment": "tout ce qui est ni de l'industrie lithique, ni de la pierre de construction : meule, vaisselle, objet manufactur\u00e9 \u2026", 
   "available": true, 
   "parent": 7, 
   "label": "Pierre autre", 
   "recommendation": "\u00e0 d\u00e9finir", 
   "txt_idx": "other_stone"
  }
 }, 
 {
  "pk": 28, 
  "model": "ishtar_base.materialtype", 
  "fields": {
   "comment": "mat\u00e9riaux naturels et de nature biologique (mnnb). Tout objet organique brut : os humain, reste de boucherie, graine, coquillage, corne \u2026", 
   "available": true, 
   "parent": 26, 
   "label": "Organique non travaill\u00e9", 
   "recommendation": "\u00e0 d\u00e9finir", 
   "txt_idx": "unworked_organic"
  }
 }, 
 {
  "pk": 6, 
  "model": "ishtar_base.materialtype", 
  "fields": {
   "comment": "toute la vaisselle c\u00e9ramique y compris les amphores", 
   "available": true, 
   "parent": 20, 
   "label": "C\u00e9ramique", 
   "recommendation": "a d\u00e9tailler", 
   "txt_idx": "ceramic"
  }
 }, 
 {
  "pk": 21, 
  "model": "ishtar_base.materialtype", 
  "fields": {
   "comment": "mat\u00e9riaux de construction en terre cuite", 
   "available": true, 
   "parent": 20, 
   "label": "Terre cuite architecturale", 
   "recommendation": "\u00e0 d\u00e9finir", 
   "txt_idx": "archi_earthenware"
  }
 }, 
 {
  "pk": 22, 
  "model": "ishtar_base.materialtype", 
  "fields": {
   "comment": "tout ce qui n'est ni de la vaisselle c\u00e9ramique, ni de la TCA : peson, statuette, jouet \u2026", 
   "available": true, 
   "parent": 20, 
   "label": "Terre cuite autre", 
   "recommendation": "\u00e0 d\u00e9finir", 
   "txt_idx": "other_earthenware"
  }
 }, 
 {
  "pk": 10, 
  "model": "ishtar_base.materialtype", 
  "fields": {
   "comment": "tout objet en m\u00e9tal non ferreux", 
   "available": true, 
   "parent": 1, 
   "label": "M\u00e9tal non ferreux", 
   "recommendation": "a definir", 
   "txt_idx": "non_ferrous_metal"
  }
 }, 
 {
  "pk": 11, 
  "model": "ishtar_base.materialtype", 
  "fields": {
   "comment": "tout objet en m\u00e9tal ferreux", 
   "available": true, 
   "parent": 1, 
   "label": "M\u00e9tal ferreux", 
   "recommendation": "a definir", 
   "txt_idx": "ferrous_metal"
  }
 }, 
 {
  "pk": 12, 
  "model": "ishtar_base.materialtype", 
  "fields": {
   "comment": "monnaies, jetons \u00e0 compter, poids mon\u00e9taires, coins", 
   "available": true, 
   "parent": 1, 
   "label": "Mon\u00e9taire", 
   "recommendation": "a d\u00e9finir", 
   "txt_idx": "monetary"
  }
 }, 
 {
  "pk": 13, 
  "model": "ishtar_base.materialtype", 
  "fields": {
   "comment": "tout objet en verre li\u00e9 \u00e0 la construction : vitrage \u2026", 
   "available": true, 
   "parent": 5, 
   "label": "Verre de construction", 
   "recommendation": "a d\u00e9finir", 
   "txt_idx": "construction_glass"
  }
 }, 
 {
  "pk": 14, 
  "model": "ishtar_base.materialtype", 
  "fields": {
   "comment": "tout objet en verre autre que le verre li\u00e9 \u00e0 la construction : vaisselle \u2026", 
   "available": true, 
   "parent": 5, 
   "label": "Verre autre", 
   "recommendation": "a definir", 
   "txt_idx": "other_glass"
  }
 }, 
 {
  "pk": 16, 
  "model": "ishtar_base.materialtype", 
  "fields": {
   "comment": "tout mat\u00e9riau de construction qui n'est ni de la pierre, ni de la TCA, ni du verre : terre crue, torchis, pl\u00e2tre, enduit peint, mosa\u00efque, bois ...", 
   "available": true, 
   "parent": 15, 
   "label": "Mat\u00e9riaux de construction autre", 
   "recommendation": "a d\u00e9finir", 
   "txt_idx": "other_construction_material"
  }
 }, 
 {
  "pk": 17, 
  "model": "ishtar_base.materialtype", 
  "fields": {
   "comment": "plastique \u2026", 
   "available": true, 
   "parent": 15, 
   "label": "Synth\u00e9tique", 
   "recommendation": "a d\u00e9finir", 
   "txt_idx": "synthetic"
  }
 }, 
 {
  "pk": 18, 
  "model": "ishtar_base.materialtype", 
  "fields": {
   "comment": "tout ce qui ne rentre pas dans les autres cases", 
   "available": true, 
   "parent": 15, 
   "label": "Autre...", 
   "recommendation": "\u00e0 d\u00e9finir", 
   "txt_idx": "other_other"
  }
 }, 
 {
  "pk": 19, 
  "model": "ishtar_base.materialtype", 
  "fields": {
   "comment": "tout ce qui n'a pas pu \u00eatre identifi\u00e9, qui est ind\u00e9terminable", 
   "available": true, 
   "parent": null, 
   "label": "Ind\u00e9termin\u00e9", 
   "recommendation": "\u00e0 d\u00e9finir", 
   "txt_idx": "unspecified"
  }
 }, 
 {
  "pk": 1, 
  "model": "ishtar_base.warehousetype", 
  "fields": {
   "comment": "Le mobilier arch\u00e9ologique reste dans ce d\u00e9p\u00f4t le temps d'un traitement puis part ailleurs...", 
   "available": true, 
   "txt_idx": "restoration_laboratory", 
   "label": "Laboratoire de restauration"
  }
 }, 
 {
  "pk": 2, 
  "model": "ishtar_base.warehousetype", 
  "fields": {
   "comment": "Ce d\u00e9p\u00f4t est un centre de conservation et d'\u00e9tude. Il est d'ordinaire en convention avec l'\u00e9tat.", 
   "available": true, 
   "txt_idx": "cce", 
   "label": "CCE"
  }
 }, 
 {
  "pk": 4, 
  "model": "ishtar_base.warehousetype", 
  "fields": {
   "comment": "Ce d\u00e9p\u00f4t poss\u00e8de une convention avec l'\u00e9tat pour conserver du mobilier qui est sous sa garde.", 
   "available": true, 
   "txt_idx": "conventioned_warehouse", 
   "label": "D\u00e9p\u00f4t conventionn\u00e9"
  }
 }, 
 {
  "pk": 3, 
  "model": "ishtar_base.warehousetype", 
  "fields": {
   "comment": "Mobilier pr\u00e9sent dans un lieu de mani\u00e8re ill\u00e9gale : pas de convention, voire de responsabilit\u00e9 exprim\u00e9e...", 
   "available": true, 
   "txt_idx": "illegal_warehouse", 
   "label": "D\u00e9p\u00f4t non conventionn\u00e9"
  }
 }, 
 {
  "pk": 5, 
  "model": "ishtar_base.warehousetype", 
  "fields": {
   "comment": "Ce d\u00e9p\u00f4t est sous la responsabilit\u00e9 directe de l'Etat. Il peut en \u00eatre locataire ou propri\u00e9taire.", 
   "available": true, 
   "txt_idx": "state_warehouse", 
   "label": "D\u00e9p\u00f4t de l'Etat"
  }
 }, 
 {
  "pk": 6, 
  "model": "ishtar_base.warehousetype", 
  "fields": {
   "comment": "Pour le stockage de documents papier, rapports la plus part du temps.", 
   "available": true, 
   "txt_idx": "library", 
   "label": "Biblioth\u00e8que"
  }
 }, 
 {
  "pk": 7, 
  "model": "ishtar_base.warehousetype", 
  "fields": {
   "comment": "Lieu de stockage de documents vari\u00e9s, photos, relev\u00e9s, jusqu'aux rapports.", 
   "available": true, 
   "txt_idx": "documentation_center", 
   "label": "Centre de documentation"
  }
 }, 
 {
  "pk": 7, 
  "model": "ishtar_base.acttype", 
  "fields": {
   "comment": "Suite \u00e0 une Saisine (art.8), envoi d'une r\u00e9ponse de non prescription", 
   "available": true, 
   "txt_idx": "reply_no_prescription", 
   "intented_to": "F", 
   "label": "R\u00e9ponse NON prescription \u00e0 une saisine"
  }
 }, 
 {
  "pk": 5, 
  "model": "ishtar_base.acttype", 
  "fields": {
   "comment": "Arr\u00eat\u00e9 qui donne l'autorisation \u00e0 un Am\u00e9nageur de faire ex\u00e9cuter par un Op\u00e9rateur agr\u00e9e sous la responsabilit\u00e9 d'un Responsable scientifique, une op\u00e9ration.", 
   "available": true, 
   "txt_idx": "excavation_autorization_order", 
   "intented_to": "O", 
   "label": "Arr\u00eat\u00e9 d'autorisation de fouille pr\u00e9ventive"
  }
 }, 
 {
  "pk": 2, 
  "model": "ishtar_base.acttype", 
  "fields": {
   "comment": "Un arr\u00eat\u00e9 prescrivant la r\u00e9alisation d'une fouille sur une surface donn\u00e9e", 
   "available": true, 
   "txt_idx": "excavation_order", 
   "intented_to": "O", 
   "label": "Arr\u00eat\u00e9 de prescription de fouille"
  }
 }, 
 {
  "pk": 1, 
  "model": "ishtar_base.acttype", 
  "fields": {
   "comment": "Un arr\u00eat\u00e9 prescrivant la r\u00e9alisation d'un diagnostic sur une surface donn\u00e9e, SANS pr\u00e9cision du responsable scientifique, SANS pr\u00e9cision de l'op\u00e9rateur", 
   "available": true, 
   "txt_idx": "diagnostic_order", 
   "intented_to": "O", 
   "label": "Arr\u00eat\u00e9 de diagnostic, sans RS, sans op\u00e9rateur"
  }
 }, 
 {
  "pk": 8, 
  "model": "ishtar_base.acttype", 
  "fields": {
   "comment": "", 
   "available": true, 
   "txt_idx": "responsible_act", 
   "intented_to": "O", 
   "label": "Arr\u00eat\u00e9 de d\u00e9signation de RS"
  }
 }, 
 {
  "pk": 9, 
  "model": "ishtar_base.acttype", 
  "fields": {
   "comment": "D\u00e9signation de l'op\u00e9rateur pour un diagnostic : utile dans le cas o\u00f9 un service territorial ET l'INRAP sont en m\u00eame temps comp\u00e9tents pour un territoire donn\u00e9.", 
   "available": true, 
   "txt_idx": "operator_designation_act", 
   "intented_to": "O", 
   "label": "Arr\u00eat\u00e9 de d\u00e9signation d'op\u00e9rateur"
  }
 }, 
 {
  "pk": 10, 
  "model": "ishtar_base.acttype", 
  "fields": {
   "comment": "", 
   "available": true, 
   "txt_idx": "thematic_survey_act", 
   "intented_to": "O", 
   "label": "Arr\u00eat\u00e9 d'autorisation de prospection th\u00e9matique"
  }
 }, 
 {
  "pk": 4, 
  "model": "ishtar_base.acttype", 
  "fields": {
   "comment": "Suite \u00e0 une demande d'avis, les SRA \u00e9met un courrier signalant sa volont\u00e9 de NE PAS prescrire un diagnostic ou une fouille sur l'emprise du projet en objet.", 
   "available": true, 
   "txt_idx": "neg_advice_reply", 
   "intented_to": "F", 
   "label": "R\u00e9ponse n\u00e9gative \u00e0 une demande d'avis (Art R523-12)"
  }
 }, 
 {
  "pk": 3, 
  "model": "ishtar_base.acttype", 
  "fields": {
   "comment": "Suite \u00e0 une demande d'avis, les SRA \u00e9met un courrier signalant sa volont\u00e9 de prescrire un diagnostic ou une fouille sur l'emprise du projet en objet.", 
   "available": true, 
   "txt_idx": "pos_advice_reply", 
   "intented_to": "F", 
   "label": "R\u00e9ponse positive \u00e0 une demande d'avis (Art R523-12)"
  }
 }, 
 {
  "pk": 6, 
  "model": "ishtar_base.acttype", 
  "fields": {
   "comment": "Arr\u00eat\u00e9 donnant l'autorisation \u00e0 un responsable scientifique de fouiller sur un terrain donn\u00e9.", 
   "available": true, 
   "txt_idx": "prog_excav_autorization_order", 
   "intented_to": "O", 
   "label": "Arr\u00eat\u00e9 d'autorisation de fouille programm\u00e9e"
  }
 }, 
 {
  "pk": 1, 
  "model": "ishtar_base.containertype", 
  "fields": {
   "comment": "Type de caisse tr\u00e8s commun dans le nord de la France. Pas cher, pas trop gros donc pas trop lourd.\r\n\r\nR\u00e9f\u00e9rences pr\u00e9cises \u00e0 trouver !!!!!", 
   "available": true, 
   "reference": "Inconnue", 
   "label": "Caisse \u00e0 pomme rouge", 
   "volume": 18, 
   "width": 20, 
   "length": null, 
   "height": 25, 
   "txt_idx": "red_apple_bin"
  }
 }, 
 {
  "pk": 2, 
  "model": "ishtar_base.containertype", 
  "fields": {
   "comment": "L'horrible caisse \u00e0 poisson ou du genre, a changer au plus vite", 
   "available": true, 
   "reference": "variable", 
   "label": "Caisse en polystyr\u00e8ne", 
   "volume": 0, 
   "width": 0, 
   "length": null, 
   "height": 0, 
   "txt_idx": "polystyren_bin"
  }
 }, 
 {
  "pk": 4, 
  "model": "ishtar_base.containertype", 
  "fields": {
   "comment": "Caisse Alibert grise standard, a pr\u00e9ciser et d\u00e9cliner en fonction des mod\u00e8les.", 
   "available": true, 
   "reference": "a pr\u00e9ciser", 
   "label": "Caisse Alibert standard", 
   "volume": 0, 
   "width": 0, 
   "length": null, 
   "height": 0, 
   "txt_idx": "stand_alibert_bin"
  }
 }, 
 {
  "pk": 6, 
  "model": "ishtar_base.containertype", 
  "fields": {
   "comment": "", 
   "available": true, 
   "reference": "Curver UNIBOX 29 L", 
   "label": "Curver UNIBOX 29 L", 
   "volume": 37, 
   "width": 355, 
   "length": null, 
   "height": 245, 
   "txt_idx": "curver_unibox_29"
  }
 }, 
 {
  "pk": 7, 
  "model": "ishtar_base.containertype", 
  "fields": {
   "comment": "", 
   "available": true, 
   "reference": "Curver UNIBOX 48 L", 
   "label": "Curver UNIBOX 48 L", 
   "volume": 63, 
   "width": 432, 
   "length": null, 
   "height": 280, 
   "txt_idx": "curver_unibox_48"
  }
 }, 
 {
  "pk": 5, 
  "model": "ishtar_base.containertype", 
  "fields": {
   "comment": "", 
   "available": true, 
   "reference": "Curver UNIBOX 20 lL", 
   "label": "Curver UNIBOX 20 L", 
   "volume": 25, 
   "width": 350, 
   "length": null, 
   "height": 165, 
   "txt_idx": "curver_unibox_20"
  }
 }, 
 {
  "pk": 1, 
  "model": "ishtar_base.treatmenttype", 
  "fields": {
   "comment": "Le fait de mettre du mobilier dans un contenant. Que cela soit le conditionnement initial ou un re-conditionnement. ", 
   "available": true, 
   "txt_idx": "packaging", 
   "virtual": false, 
   "label": "Conditionnement"
  }
 }, 
 {
  "pk": 2, 
  "model": "ishtar_base.treatmenttype", 
  "fields": {
   "comment": "Un lot mobilier ou un objet isol\u00e9 subit une radiographie (rayon X) qui produit un ou des films radio.", 
   "available": true, 
   "txt_idx": "regular_x_ray", 
   "virtual": false, 
   "label": "Radiographie argentique"
  }
 }, 
 {
  "pk": 3, 
  "model": "ishtar_base.treatmenttype", 
  "fields": {
   "comment": "Un lot mobilier ou un objet isol\u00e9 subit une radiographie (rayon X) qui produit un ou des fichiers num\u00e9riques.", 
   "available": true, 
   "txt_idx": "digital_x_ray", 
   "virtual": false, 
   "label": "Radiographie num\u00e9rique"
  }
 }, 
 {
  "pk": 4, 
  "model": "ishtar_base.treatmenttype", 
  "fields": {
   "comment": "D\u00e9placement de mobilier, entre deux d\u00e9p\u00f4ts : le mobilier ne peut pas \u00eatre stocker ailleurs que dans un lieu consid\u00e9r\u00e9 comme un d\u00e9p\u00f4t.", 
   "available": true, 
   "txt_idx": "moving", 
   "virtual": false, 
   "label": "D\u00e9placement"
  }
 }, 
 {
  "pk": 5, 
  "model": "ishtar_base.treatmenttype", 
  "fields": {
   "comment": "Regroupement d'un ensemble de mobilier. Exemple : ensemble des outils provenant d'une fouille, Mobilier datant d'un site, tessonier virtuel, etc.", 
   "available": true, 
   "txt_idx": "virtual_group", 
   "virtual": true, 
   "label": "Groupement virtuel"
  }
 }, 
 {
  "pk": 7, 
  "model": "ishtar_base.treatmenttype", 
  "fields": {
   "comment": "Division d'un lot de mobilier en plusieurs lots", 
   "available": true, 
   "txt_idx": "split", 
   "virtual": false, 
   "label": "Division"
  }
 }, 
 {
  "pk": 6, 
  "model": "ishtar_base.treatmenttype", 
  "fields": {
   "comment": "R\u00e9union de plusieurs objets ou lots mobiliers en un seul. Ce type de traitement peut impliquer ou non un reconditionnement.\r\n\r\nExemple : Remontage d'une c\u00e9ramique \u00e0 partir de tessons d\u00e9j\u00e0 pr\u00e9sents dans un contenant (pas de reconditionnement), regroupement d'une partie de la faune (os) d'une op\u00e9ration et cr\u00e9ation d'une nouvelle caisse dans ce but (reconditionnement \u00e0 faire)", 
   "available": true, 
   "txt_idx": "physical_grouping", 
   "virtual": false, 
   "label": "Groupement"
  }
 }, 
 {
  "pk": 8, 
  "model": "ishtar_base.treatmenttype", 
  "fields": {
   "comment": "Prise de vue \u00e0 l'aide d'un appareil photo num\u00e9rique", 
   "available": true, 
   "txt_idx": "digital_photography", 
   "virtual": false, 
   "label": "Photographie num\u00e9rique"
  }
 }, 
 {
  "pk": 9, 
  "model": "ishtar_base.treatmenttype", 
  "fields": {
   "comment": "Photographie produisant un film (positif ou n\u00e9gatif)", 
   "available": true, 
   "txt_idx": "regular_photography", 
   "virtual": false, 
   "label": "Photographie argentique"
  }
 }, 
 {
  "pk": 10, 
  "model": "ishtar_base.treatmenttype", 
  "fields": {
   "comment": "Processus qui permet \u00e9liminer le sel qui impr\u00e8gne un objet arch\u00e9ologique ou lot d'objets.", 
   "available": true, 
   "txt_idx": "desalinisation", 
   "virtual": false, 
   "label": "D\u00e9salinisation"
  }
 }, 
 {
  "pk": 11, 
  "model": "ishtar_base.treatmenttype", 
  "fields": {
   "comment": "R\u00e9duction des oxydes d\u00e9velopp\u00e9s sur/dans un objet arch\u00e9ologique par l'usage de courant \u00e9lectrique.", 
   "available": true, 
   "txt_idx": "electrolysis", 
   "virtual": false, 
   "label": "Electrolyse"
  }
 }
]